{
  "cordova-plugin-whitelist": {
    "source": {
      "type": "registry",
      "id": "cordova-plugin-whitelist@1"
    },
    "is_top_level": true,
    "variables": {}
  },
  "cordova-plugin-device": {
    "source": {
      "type": "registry",
      "id": "cordova-plugin-device"
    },
    "is_top_level": true,
    "variables": {}
  },
  "cordova-plugin-customurlscheme": {
    "source": {
      "type": "registry",
      "id": "https://github.com/EddyVerbruggen/LaunchMyApp-PhoneGap-Plugin.git"
    },
    "is_top_level": true,
    "variables": {
      "URL_SCHEME": "cordovaapp"
    }
  },
  "cordova-plugin-secure-key-store": {
    "source": {
      "type": "registry",
      "id": "cordova-plugin-secure-key-store"
    },
    "is_top_level": true,
    "variables": {}
  }
}